<!DOCTYPE html>
<html lang="en-us">
<head>
	<title>Web Demo</title>
	<meta charset="utf-8">
	<meta http-equiv="X-UA-Compatible" content="IE=edge,chrome=1" />
	<meta http-equiv="content-type" content="text/html;charset=UTF-8"/>
	<meta http-equiv="content-language" content="en-US"/>
	<meta http-equiv="window-target" content="_top"/>
	<meta name="robots" content="index, follow" />
	<meta name="target" content="all"/>
	<meta name="viewport" content="width=device-width, initial-scale=1, shrink-to-fit=no">
	<meta name="subject" content="UCLA Alpert"/>


	<link rel="stylesheet" href="css/bootstrap.min.css">
	<link rel="stylesheet" href="css/app.css">
	<link rel="stylesheet" href="https://use.fontawesome.com/releases/v5.0.10/css/all.css" integrity="sha384-+d0P83n9kaQMCwj8F4RJB66tzIwOKmrdb46+porD/OvrJ+37WqIM7UoBtwHO6Nlg" crossorigin="anonymous">

	<link href="https://fonts.googleapis.com/css?family=Source+Sans+Pro:400,600,700,900" rel="stylesheet">

	<script type="text/javascript" src="js/jquery.js"></script>
	<script type="text/javascript" src="js/easing.js"></script>
	<script src="https://cdnjs.cloudflare.com/ajax/libs/waypoints/2.0.5/waypoints.min.js"></script>
	<script type="text/javascript" src="js/app.js"></script>

</head>
<body onunload="">

	<div class="trigger trigger-top js-trigger"></div>
<div class="trigger trigger-middle js-trigger"></div>
<div class="trigger trigger-bottom js-trigger"></div>

<nav>
	<div class="container">
		<div class="row align-items-center">
			<div class="col-auto mr-auto">
				<img class="img-fluid" src="images/other/logo@2x.png" alt="">
			</div>
			<div class="nav-item">Home</div>
			<div class="nav-item active">Products</div>
			<div class="nav-item">About</div>
			<div class="nav-item">Blog</div>
			<div class="nav-item">Press</div>
		</div>
	</div>
</nav>
	<section class="content-section bg-purple">
		<!-- <div class="angle top bg-white"></div> -->
		<div class="container">
			<div class="row justify-content-between align-items-center">
				<div class="col-4">
					<img src="images/other/pattern@2x.png" alt="" class="img-fluid">
				</div>
				<div class="col-6">
					<h1>Meet the people who live for making your privacy and security simple </h1>
				</div>
			</div>
		</div>
	</section>	<style>
		.sf-team {
			background-image: url(images/backgrounds/sf-overlay.jpg);
			background-size: cover;
			background-attachment: fixed;
		}
	</style>
	<section class="banner-section team-section dark-gradient sf-team">
		<img class="bg-img img-fluid show" src="images/backgrounds/sf-overlay.jpg" alt="">
		<div class="container">
		<h1 class="mb-5 display-3 team">San Francisco</h1>
			<div class="row justify-content-between">
									<div class="col-lg-3 col-6 profile-container">
						<!-- <div class="slice"></div> -->
						<div class="profile">
							<img src="images/profiles/circles/3@2x.png" alt="profile picture">
						</div>

						<h4>First Last</h4>
						<p>Job Title</p>
					</div>
														<div class="col-lg-3 col-6 profile-container">
						<!-- <div class="slice"></div> -->
						<div class="profile">
							<img src="images/profiles/circles/9@2x.png" alt="profile picture">
						</div>

						<h4>First Last</h4>
						<p>Job Title</p>
					</div>
														<div class="col-lg-3 col-6 profile-container">
						<!-- <div class="slice"></div> -->
						<div class="profile">
							<img src="images/profiles/circles/9@2x.png" alt="profile picture">
						</div>

						<h4>First Last</h4>
						<p>Job Title</p>
					</div>
											<div class="w-100"></div>
														<div class="col-lg-3 col-6 profile-container">
						<!-- <div class="slice"></div> -->
						<div class="profile">
							<img src="images/profiles/circles/10@2x.png" alt="profile picture">
						</div>

						<h4>First Last</h4>
						<p>Job Title</p>
					</div>
														<div class="col-lg-3 col-6 profile-container">
						<!-- <div class="slice"></div> -->
						<div class="profile">
							<img src="images/profiles/circles/9@2x.png" alt="profile picture">
						</div>

						<h4>First Last</h4>
						<p>Job Title</p>
					</div>
														<div class="col-lg-3 col-6 profile-container">
						<!-- <div class="slice"></div> -->
						<div class="profile">
							<img src="http://www.keepsafe.test/images/profiles/circles/1@2x.png" alt="profile picture">
						</div>

						<h4>First Last</h4>
						<p>Job Title</p>
					</div>
											<div class="w-100"></div>
														<div class="col-lg-3 col-6 profile-container">
						<!-- <div class="slice"></div> -->
						<div class="profile">
							<img src="images/profiles/circles/5@2x.png" alt="profile picture">
						</div>

						<h4>First Last</h4>
						<p>Job Title</p>
					</div>
														<div class="col-lg-3 col-6 profile-container">
						<!-- <div class="slice"></div> -->
						<div class="profile">
							<img src="images/profiles/circles/4@2x.png" alt="profile picture">
						</div>

						<h4>First Last</h4>
						<p>Job Title</p>
					</div>
														<div class="col-lg-3 col-6 profile-container">
						<!-- <div class="slice"></div> -->
						<div class="profile">
							<img src="images/profiles/circles/2@2x.png" alt="profile picture">
						</div>

						<h4>First Last</h4>
						<p>Job Title</p>
					</div>
											<div class="w-100"></div>
														<div class="col-lg-3 col-6 profile-container">
						<!-- <div class="slice"></div> -->
						<div class="profile">
							<img src="images/profiles/circles/10@2x.png" alt="profile picture">
						</div>

						<h4>First Last</h4>
						<p>Job Title</p>
					</div>
														<div class="col-lg-3 col-6 profile-container">
						<!-- <div class="slice"></div> -->
						<div class="profile">
							<img src="images/profiles/circles/6@2x.png" alt="profile picture">
						</div>

						<h4>First Last</h4>
						<p>Job Title</p>
					</div>
														<div class="col-lg-3 col-6 profile-container">
						<!-- <div class="slice"></div> -->
						<div class="profile">
							<img src="images/profiles/circles/3@2x.png" alt="profile picture">
						</div>

						<h4>First Last</h4>
						<p>Job Title</p>
					</div>
											<div class="w-100"></div>
												</div>
		</div>
	</section>

	<style>
	.krakow-team {
		background-image: url(images/backgrounds/krakow-overlay.jpg);
		background-size: cover;
		background-attachment: fixed;
	}
	</style>
	<section class="banner-section team-section dark-gradient krakow-team">
		<!-- <img class="bg-img img-fluid show" src="images/backgrounds/sf-overlay.jpg" alt=""> -->
		<div class="container">
		<h1 class="mb-5 display-3 team">Krakow</h1>
			<div class="row justify-content-between">
									<div class="col-lg-3 col-6 profile-container">
						<!-- <div class="slice"></div> -->
						<div class="profile">
							<img src="images/profiles/circles/4@2x.png" alt="profile picture">
						</div>

						<h4>First Last</h4>
						<p>Job Title</p>
					</div>
														<div class="col-lg-3 col-6 profile-container">
						<!-- <div class="slice"></div> -->
						<div class="profile">
							<img src="images/profiles/circles/2@2x.png" alt="profile picture">
						</div>

						<h4>First Last</h4>
						<p>Job Title</p>
					</div>
														<div class="col-lg-3 col-6 profile-container">
						<!-- <div class="slice"></div> -->
						<div class="profile">
							<img src="images/profiles/circles/4@2x.png" alt="profile picture">
						</div>

						<h4>First Last</h4>
						<p>Job Title</p>
					</div>
											<div class="w-100"></div>
														<div class="col-lg-3 col-6 profile-container">
						<!-- <div class="slice"></div> -->
						<div class="profile">
							<img src="images/profiles/circles/8@2x.png" alt="profile picture">
						</div>

						<h4>First Last</h4>
						<p>Job Title</p>
					</div>
														<div class="col-lg-3 col-6 profile-container">
						<!-- <div class="slice"></div> -->
						<div class="profile">
							<img src="images/profiles/circles/9@2x.png" alt="profile picture">
						</div>

						<h4>First Last</h4>
						<p>Job Title</p>
					</div>
														<div class="col-lg-3 col-6 profile-container">
						<!-- <div class="slice"></div> -->
						<div class="profile">
							<img src="images/profiles/circles/6@2x.png" alt="profile picture">
						</div>

						<h4>First Last</h4>
						<p>Job Title</p>
					</div>
											<div class="w-100"></div>
												</div>
		</div>
	</section>

	<style>
		.berlin-team {
			background-image: url(images/backgrounds/berlin-overlay.jpg);
			background-size: cover;
			background-attachment: fixed;
		}
	</style>
	<section class="banner-section team-section dark-gradient berlin-team">
		<!-- <img class="bg-img img-fluid show" src="images/backgrounds/berlin-overlay.jpg" alt=""> -->
		<div class="container">
		<h1 class="mb-5 display-3 team">Berlin</h1>
			<div class="row justify-content-between">
									<div class="col-lg-3 col-6 profile-container">
						<!-- <div class="slice"></div> -->
						<div class="profile">
							<img src="http://www.keepsafe.test/images/profiles/circles/1@2x.png" alt="profile picture">
						</div>

						<h4>First Last</h4>
						<p>Job Title</p>
					</div>
														<div class="col-lg-3 col-6 profile-container">
						<!-- <div class="slice"></div> -->
						<div class="profile">
							<img src="images/profiles/circles/2@2x.png" alt="profile picture">
						</div>

						<h4>First Last</h4>
						<p>Job Title</p>
					</div>
														<div class="col-lg-3 col-6 profile-container">
						<!-- <div class="slice"></div> -->
						<div class="profile">
							<img src="images/profiles/circles/3@2x.png" alt="profile picture">
						</div>

						<h4>First Last</h4>
						<p>Job Title</p>
					</div>
											<div class="w-100"></div>
												</div>
		</div>
	</section>

	<style>
		.global-team {
			background-size: cover;
			background-attachment: fixed;
		}
	</style>
	<section class="banner-section team-section bg-purple global-team">
		<!-- <img class="bg-img img-fluid show" src="images/backgrounds/berlin-overlay.jpg" alt=""> -->
		<div class="container">
		<h1 class="mb-5 display-3 team">Global Support</h1>
			<div class="row justify-content-between">
									<div class="col-lg-3 col-6 profile-container">
						<!-- <div class="slice"></div> -->
						<div class="profile">
							<img src="images/profiles/circles/5@2x.png" alt="profile picture">
						</div>

						<h4>First Last</h4>
						<p>Job Title</p>
					</div>
														<div class="col-lg-3 col-6 profile-container">
						<!-- <div class="slice"></div> -->
						<div class="profile">
							<img src="images/profiles/circles/3@2x.png" alt="profile picture">
						</div>

						<h4>First Last</h4>
						<p>Job Title</p>
					</div>
														<div class="col-lg-3 col-6 profile-container">
						<!-- <div class="slice"></div> -->
						<div class="profile">
							<img src="http://www.keepsafe.test/images/profiles/circles/1@2x.png" alt="profile picture">
						</div>

						<h4>First Last</h4>
						<p>Job Title</p>
					</div>
											<div class="w-100"></div>
														<div class="col-lg-3 col-6 profile-container">
						<!-- <div class="slice"></div> -->
						<div class="profile">
							<img src="images/profiles/circles/9@2x.png" alt="profile picture">
						</div>

						<h4>First Last</h4>
						<p>Job Title</p>
					</div>
														<div class="col-lg-3 col-6 profile-container">
						<!-- <div class="slice"></div> -->
						<div class="profile">
							<img src="images/profiles/circles/6@2x.png" alt="profile picture">
						</div>

						<h4>First Last</h4>
						<p>Job Title</p>
					</div>
														<div class="col-lg-3 col-6 profile-container">
						<!-- <div class="slice"></div> -->
						<div class="profile">
							<img src="images/profiles/circles/9@2x.png" alt="profile picture">
						</div>

						<h4>First Last</h4>
						<p>Job Title</p>
					</div>
											<div class="w-100"></div>
														<div class="col-lg-3 col-6 profile-container">
						<!-- <div class="slice"></div> -->
						<div class="profile">
							<img src="http://www.keepsafe.test/images/profiles/circles/1@2x.png" alt="profile picture">
						</div>

						<h4>First Last</h4>
						<p>Job Title</p>
					</div>
														<div class="col-lg-3 col-6 profile-container">
						<!-- <div class="slice"></div> -->
						<div class="profile">
							<img src="images/profiles/circles/3@2x.png" alt="profile picture">
						</div>

						<h4>First Last</h4>
						<p>Job Title</p>
					</div>
														<div class="col-lg-3 col-6 profile-container">
						<!-- <div class="slice"></div> -->
						<div class="profile">
							<img src="images/profiles/circles/10@2x.png" alt="profile picture">
						</div>

						<h4>First Last</h4>
						<p>Job Title</p>
					</div>
											<div class="w-100"></div>
														<div class="col-lg-3 col-6 profile-container">
						<!-- <div class="slice"></div> -->
						<div class="profile">
							<img src="images/profiles/circles/9@2x.png" alt="profile picture">
						</div>

						<h4>First Last</h4>
						<p>Job Title</p>
					</div>
														<div class="col-lg-3 col-6 profile-container">
						<!-- <div class="slice"></div> -->
						<div class="profile">
							<img src="images/profiles/circles/8@2x.png" alt="profile picture">
						</div>

						<h4>First Last</h4>
						<p>Job Title</p>
					</div>
														<div class="col-lg-3 col-6 profile-container">
						<!-- <div class="slice"></div> -->
						<div class="profile">
							<img src="images/profiles/circles/7@2x.png" alt="profile picture">
						</div>

						<h4>First Last</h4>
						<p>Job Title</p>
					</div>
											<div class="w-100"></div>
												</div>
		</div>
	</section>
	<section class="content-section">
		<!-- <div class="angle top bg-white"></div> -->
	</section>

</body>
</html>
